<svg width="87" height="87" viewBox="0 0 87 87" fill="none" xmlns="http://www.w3.org/2000/svg">
<rect width="87" height="87" rx="3" fill="white"/>
<path d="M69.2135 59.4125V34.1951V59.4125ZM69.2135 59.4125C69.2153 59.7692 69.145 60.1227 69.0069 60.4516C68.8688 60.7806 68.6657 61.0783 68.4098 61.3268L69.2135 59.4125ZM66.4953 31.6271C67.1521 31.6284 67.783 31.8803 68.2598 32.3298V32.3442L68.3053 32.3884C68.5467 32.6229 68.7383 32.9037 68.8686 33.214C68.9989 33.5243 69.0652 33.8578 69.0635 34.1943V34.1951V59.4125L69.0635 59.4132C69.0652 59.7498 68.9989 60.0833 68.8686 60.3936C68.7383 60.7039 68.5467 60.9847 68.3053 61.2192L68.2598 61.2634V61.2801C67.7826 61.7288 67.1518 61.9798 66.4953 61.9805H11.7182C11.7182 61.9805 11.7181 61.9805 11.7181 61.9805C11.0615 61.9802 10.4307 61.7292 9.95379 61.2802V61.2633L9.90812 61.219C9.6663 60.9849 9.47445 60.7042 9.34416 60.3939C9.21386 60.0836 9.14783 59.75 9.15006 59.4135V59.4125L9.15006 34.1951L9.15005 34.1941C9.14783 33.8575 9.21386 33.524 9.34416 33.2137C9.47445 32.9033 9.6663 32.6226 9.90812 32.3885L9.95379 32.3443V32.3298C10.4305 31.88 11.0613 31.6282 11.7182 31.6271H66.4953ZM66.5002 33.6433L66.5002 33.6432H66.4954H11.7181H11.718C11.5773 33.6433 11.4422 33.6978 11.3408 33.7953C11.2848 33.8455 11.2402 33.9072 11.2101 33.9761L11.3475 34.0362L11.2101 33.9761C11.1797 34.0456 11.1648 34.1209 11.1662 34.1967V59.4109C11.1648 59.4867 11.1797 59.562 11.2101 59.6315C11.2402 59.7004 11.2848 59.7621 11.3408 59.8123C11.4422 59.9098 11.5773 59.9643 11.718 59.9644H11.7181H66.4954V59.9644L66.5002 59.9643C66.6407 59.9598 66.7756 59.9077 66.8826 59.8165L66.8917 59.8087L66.8994 59.7996C66.9906 59.6926 67.0427 59.5578 67.0472 59.4173L67.0473 59.4173V59.4125V34.1951H67.0474L67.0472 34.1903C67.0427 34.0498 66.9906 33.915 66.8994 33.808L66.8917 33.7989L66.8826 33.7911C66.7756 33.6999 66.6407 33.6478 66.5002 33.6433Z" fill="#0072BB" stroke="white" stroke-width="0.3"/>
<mask id="path-3-inside-1_86_391" fill="white">
<path fill-rule="evenodd" clip-rule="evenodd" d="M43.3995 49.6339C43.3976 49.915 43.3707 50.1954 43.3192 50.4717C43.2621 50.7306 43.1806 50.9834 43.0756 51.2268C42.961 51.4526 42.8265 51.6677 42.6737 51.8697C42.5207 52.0691 42.3422 52.2476 42.1428 52.4007C41.9349 52.5585 41.7141 52.6987 41.4828 52.8196C41.2333 52.9354 40.9752 53.0315 40.7107 53.107C40.5064 53.1755 40.296 53.2245 40.0823 53.2531V54.1689C40.0843 54.4439 39.9773 54.7084 39.7847 54.9047C39.592 55.101 39.3295 55.2129 39.0546 55.2162C38.9169 55.2165 38.7806 55.1896 38.6534 55.1371C38.5262 55.0846 38.4106 55.0074 38.3133 54.9101C38.216 54.8128 38.1389 54.6972 38.0864 54.57C38.0338 54.4428 38.007 54.3065 38.0073 54.1689V53.2848C37.944 53.2677 37.8806 53.2677 37.8149 53.2531L37.3278 53.1581C37.15 53.107 37.0039 53.0753 36.8602 53.029C36.3687 52.854 35.8995 52.6218 35.4622 52.3374C35.2977 52.2351 35.1633 52.091 35.0726 51.9199C34.9819 51.7488 34.9381 51.5567 34.9458 51.3632C34.9552 51.1673 35.0168 50.9774 35.1243 50.8134C35.2318 50.6494 35.3813 50.5171 35.5572 50.4304C35.7351 50.3501 35.9307 50.3169 36.1252 50.334C36.3196 50.3511 36.5065 50.4178 36.6677 50.5278L36.7311 50.574C36.8285 50.6228 36.9405 50.6885 37.0696 50.7518C37.1816 50.8005 37.3131 50.8639 37.4544 50.9126C37.6013 50.9749 37.7518 51.0286 37.905 51.0733C38.0625 51.1293 38.226 51.1669 38.3921 51.1854C38.5839 51.2146 38.7779 51.2261 38.9717 51.2195C39.1165 51.2229 39.2613 51.2172 39.4053 51.2024C39.5355 51.1859 39.6642 51.159 39.7901 51.122C39.9068 51.0976 40.0204 51.06 40.1286 51.01C40.226 50.9613 40.321 50.9126 40.4014 50.8639V50.8493C40.4781 50.7987 40.5485 50.739 40.6109 50.6715C40.6742 50.5972 40.7282 50.5154 40.7716 50.4279C40.8537 50.2297 40.8927 50.0164 40.8861 49.802C40.8851 49.6883 40.8736 49.575 40.852 49.4634C40.8233 49.3754 40.7796 49.293 40.7229 49.2199C40.6556 49.1217 40.5735 49.0346 40.4793 48.9617C40.3941 48.8744 40.2974 48.799 40.1919 48.7377C40.0671 48.6603 39.9378 48.5904 39.8047 48.5282C39.6696 48.4587 39.5296 48.3993 39.3858 48.3504C39.1422 48.253 38.8549 48.141 38.5675 48.0143L38.4067 47.9656C37.4325 47.5467 36.4924 47.2349 35.752 46.5335C35.6155 46.3999 35.4915 46.2539 35.3818 46.0976C35.2672 45.9344 35.1654 45.7625 35.0773 45.5837C34.9911 45.3873 34.9258 45.1824 34.8825 44.9723C34.8442 44.7437 34.823 44.5125 34.8192 44.2807C34.8171 44.0049 34.8498 43.7299 34.9166 43.4623C34.9615 43.1996 35.0435 42.9445 35.1602 42.7049C35.269 42.4759 35.4039 42.2601 35.562 42.0619C35.7177 41.8648 35.8959 41.6866 36.093 41.5309C36.2991 41.3718 36.5192 41.2316 36.7505 41.112C37 40.9916 37.2581 40.8898 37.5226 40.8076C37.6834 40.7759 37.8441 40.7272 38.0097 40.6956V39.7457C38.0129 39.4707 38.1249 39.2082 38.3212 39.0156C38.5174 38.823 38.782 38.716 39.057 38.7179C39.329 38.7198 39.5893 38.8287 39.7816 39.0211C39.974 39.2134 40.0829 39.4737 40.0848 39.7457V40.6152C40.2139 40.6298 40.3113 40.6469 40.4233 40.6639C41.2762 40.7761 42.0884 41.0964 42.7882 41.5967C42.9559 41.6966 43.0937 41.8397 43.1871 42.0111C43.2805 42.1825 43.3261 42.3758 43.3192 42.5709C43.3037 42.7655 43.2376 42.9527 43.1273 43.1137C43.0171 43.2748 42.8666 43.4042 42.6908 43.4891C42.5146 43.5766 42.3177 43.6138 42.1218 43.5966C41.9259 43.5794 41.7384 43.5085 41.5802 43.3917L41.5169 43.343C41.4195 43.2967 41.3074 43.248 41.1783 43.1822C41.0605 43.1143 40.9375 43.0557 40.8106 43.0069C40.6577 42.945 40.5016 42.8913 40.3429 42.8461C40.1831 42.7978 40.0204 42.7596 39.8558 42.7317C39.6805 42.717 39.4856 42.7 39.2786 42.7C39.1328 42.7027 38.9873 42.7132 38.8427 42.7317C38.7133 42.7465 38.5848 42.7684 38.4578 42.7974C38.3426 42.827 38.2295 42.8645 38.1193 42.9095C38.025 42.957 37.9338 43.0107 37.8465 43.0702C37.7694 43.1259 37.6991 43.1905 37.6371 43.2626C37.5851 43.3354 37.5371 43.411 37.4934 43.4891C37.404 43.6915 37.3599 43.9109 37.3643 44.1321C37.3627 44.2412 37.3792 44.3498 37.413 44.4536C37.4325 44.5463 37.4706 44.6341 37.525 44.7117H37.5397C37.6071 44.8001 37.6829 44.8817 37.7662 44.9553C37.8552 45.0393 37.9523 45.1143 38.056 45.1794C38.1789 45.2587 38.3075 45.3287 38.4408 45.3888C38.5755 45.4631 38.7155 45.5274 38.8597 45.5812C40.1944 46.0951 42.077 46.7089 42.8808 47.8341C42.9901 47.9928 43.087 48.1597 43.1706 48.3334C43.2536 48.5299 43.3179 48.7337 43.363 48.9422C43.4089 49.1699 43.4301 49.4018 43.4263 49.6339H43.3995Z"/>
</mask>
<path fill-rule="evenodd" clip-rule="evenodd" d="M43.3995 49.6339C43.3976 49.915 43.3707 50.1954 43.3192 50.4717C43.2621 50.7306 43.1806 50.9834 43.0756 51.2268C42.961 51.4526 42.8265 51.6677 42.6737 51.8697C42.5207 52.0691 42.3422 52.2476 42.1428 52.4007C41.9349 52.5585 41.7141 52.6987 41.4828 52.8196C41.2333 52.9354 40.9752 53.0315 40.7107 53.107C40.5064 53.1755 40.296 53.2245 40.0823 53.2531V54.1689C40.0843 54.4439 39.9773 54.7084 39.7847 54.9047C39.592 55.101 39.3295 55.2129 39.0546 55.2162C38.9169 55.2165 38.7806 55.1896 38.6534 55.1371C38.5262 55.0846 38.4106 55.0074 38.3133 54.9101C38.216 54.8128 38.1389 54.6972 38.0864 54.57C38.0338 54.4428 38.007 54.3065 38.0073 54.1689V53.2848C37.944 53.2677 37.8806 53.2677 37.8149 53.2531L37.3278 53.1581C37.15 53.107 37.0039 53.0753 36.8602 53.029C36.3687 52.854 35.8995 52.6218 35.4622 52.3374C35.2977 52.2351 35.1633 52.091 35.0726 51.9199C34.9819 51.7488 34.9381 51.5567 34.9458 51.3632C34.9552 51.1673 35.0168 50.9774 35.1243 50.8134C35.2318 50.6494 35.3813 50.5171 35.5572 50.4304C35.7351 50.3501 35.9307 50.3169 36.1252 50.334C36.3196 50.3511 36.5065 50.4178 36.6677 50.5278L36.7311 50.574C36.8285 50.6228 36.9405 50.6885 37.0696 50.7518C37.1816 50.8005 37.3131 50.8639 37.4544 50.9126C37.6013 50.9749 37.7518 51.0286 37.905 51.0733C38.0625 51.1293 38.226 51.1669 38.3921 51.1854C38.5839 51.2146 38.7779 51.2261 38.9717 51.2195C39.1165 51.2229 39.2613 51.2172 39.4053 51.2024C39.5355 51.1859 39.6642 51.159 39.7901 51.122C39.9068 51.0976 40.0204 51.06 40.1286 51.01C40.226 50.9613 40.321 50.9126 40.4014 50.8639V50.8493C40.4781 50.7987 40.5485 50.739 40.6109 50.6715C40.6742 50.5972 40.7282 50.5154 40.7716 50.4279C40.8537 50.2297 40.8927 50.0164 40.8861 49.802C40.8851 49.6883 40.8736 49.575 40.852 49.4634C40.8233 49.3754 40.7796 49.293 40.7229 49.2199C40.6556 49.1217 40.5735 49.0346 40.4793 48.9617C40.3941 48.8744 40.2974 48.799 40.1919 48.7377C40.0671 48.6603 39.9378 48.5904 39.8047 48.5282C39.6696 48.4587 39.5296 48.3993 39.3858 48.3504C39.1422 48.253 38.8549 48.141 38.5675 48.0143L38.4067 47.9656C37.4325 47.5467 36.4924 47.2349 35.752 46.5335C35.6155 46.3999 35.4915 46.2539 35.3818 46.0976C35.2672 45.9344 35.1654 45.7625 35.0773 45.5837C34.9911 45.3873 34.9258 45.1824 34.8825 44.9723C34.8442 44.7437 34.823 44.5125 34.8192 44.2807C34.8171 44.0049 34.8498 43.7299 34.9166 43.4623C34.9615 43.1996 35.0435 42.9445 35.1602 42.7049C35.269 42.4759 35.4039 42.2601 35.562 42.0619C35.7177 41.8648 35.8959 41.6866 36.093 41.5309C36.2991 41.3718 36.5192 41.2316 36.7505 41.112C37 40.9916 37.2581 40.8898 37.5226 40.8076C37.6834 40.7759 37.8441 40.7272 38.0097 40.6956V39.7457C38.0129 39.4707 38.1249 39.2082 38.3212 39.0156C38.5174 38.823 38.782 38.716 39.057 38.7179C39.329 38.7198 39.5893 38.8287 39.7816 39.0211C39.974 39.2134 40.0829 39.4737 40.0848 39.7457V40.6152C40.2139 40.6298 40.3113 40.6469 40.4233 40.6639C41.2762 40.7761 42.0884 41.0964 42.7882 41.5967C42.9559 41.6966 43.0937 41.8397 43.1871 42.0111C43.2805 42.1825 43.3261 42.3758 43.3192 42.5709C43.3037 42.7655 43.2376 42.9527 43.1273 43.1137C43.0171 43.2748 42.8666 43.4042 42.6908 43.4891C42.5146 43.5766 42.3177 43.6138 42.1218 43.5966C41.9259 43.5794 41.7384 43.5085 41.5802 43.3917L41.5169 43.343C41.4195 43.2967 41.3074 43.248 41.1783 43.1822C41.0605 43.1143 40.9375 43.0557 40.8106 43.0069C40.6577 42.945 40.5016 42.8913 40.3429 42.8461C40.1831 42.7978 40.0204 42.7596 39.8558 42.7317C39.6805 42.717 39.4856 42.7 39.2786 42.7C39.1328 42.7027 38.9873 42.7132 38.8427 42.7317C38.7133 42.7465 38.5848 42.7684 38.4578 42.7974C38.3426 42.827 38.2295 42.8645 38.1193 42.9095C38.025 42.957 37.9338 43.0107 37.8465 43.0702C37.7694 43.1259 37.6991 43.1905 37.6371 43.2626C37.5851 43.3354 37.5371 43.411 37.4934 43.4891C37.404 43.6915 37.3599 43.9109 37.3643 44.1321C37.3627 44.2412 37.3792 44.3498 37.413 44.4536C37.4325 44.5463 37.4706 44.6341 37.525 44.7117H37.5397C37.6071 44.8001 37.6829 44.8817 37.7662 44.9553C37.8552 45.0393 37.9523 45.1143 38.056 45.1794C38.1789 45.2587 38.3075 45.3287 38.4408 45.3888C38.5755 45.4631 38.7155 45.5274 38.8597 45.5812C40.1944 46.0951 42.077 46.7089 42.8808 47.8341C42.9901 47.9928 43.087 48.1597 43.1706 48.3334C43.2536 48.5299 43.3179 48.7337 43.363 48.9422C43.4089 49.1699 43.4301 49.4018 43.4263 49.6339H43.3995Z" fill="#0072BB" stroke="white" stroke-width="0.6" mask="url(#path-3-inside-1_86_391)"/>
<path d="M46.9025 55.9881L46.9024 55.9883C44.9172 58.421 42.1594 59.9055 39.1056 59.9055C36.0522 59.9055 33.3112 58.4214 31.3086 55.9881C29.3832 53.6367 28.1764 50.3729 28.1764 46.8038C28.1764 43.2348 29.3831 39.9711 31.3084 37.6197C33.311 35.1863 36.0545 33.7021 39.1056 33.7021C42.1594 33.7021 44.9172 35.1866 46.9023 37.6193L46.9029 37.6199C48.8423 39.9709 50.0347 43.2342 50.0347 46.8038C50.0347 50.3729 48.828 53.6367 46.9025 55.9881ZM45.3493 38.8931C43.7502 36.9333 41.5376 35.7183 39.1056 35.7183C36.6735 35.7183 34.4608 36.9333 32.8617 38.8932C31.2137 40.8995 30.1901 43.7005 30.1901 46.8038C30.1901 49.907 31.2136 52.7153 32.8618 54.717C34.4609 56.6743 36.6735 57.8893 39.1056 57.8893C41.5376 57.8893 43.7503 56.6742 45.3494 54.7168C46.9974 52.7081 48.021 49.9072 48.021 46.8038C48.021 43.7007 46.9975 40.8923 45.3493 38.8931Z" fill="#0072BB" stroke="white" stroke-width="0.3"/>
<path d="M21.4481 24H76.2254C76.5805 23.999 76.9324 24.0679 77.2608 24.2029C77.5893 24.3379 77.8879 24.5363 78.1397 24.7867H78.1543M21.4481 24C20.7319 24.0032 20.0452 24.2854 19.5337 24.7867M21.4481 24V24.15H21.4484M21.4481 24L21.4487 24.15C21.4486 24.15 21.4485 24.15 21.4484 24.15M19.5337 24.7867C19.032 25.298 18.749 25.9846 18.7446 26.701M19.5337 24.7867L19.6387 24.8938C19.6391 24.8935 19.6394 24.8931 19.6398 24.8928M19.5337 24.7867L19.6408 24.8917C19.6405 24.8921 19.6401 24.8924 19.6398 24.8928M18.7446 26.701V30.4089H18.8946M18.7446 26.701L18.8946 26.7019C18.8946 26.7018 18.8946 26.7016 18.8946 26.7015M18.7446 26.701H18.8946V26.7015M18.8946 30.4089V30.5589H20.9108V30.4089M18.8946 30.4089H20.9108M18.8946 30.4089V26.7015M20.9108 30.4089H21.0608V26.701M20.9108 30.4089V26.7061M21.0608 26.701C21.057 26.65 21.0651 26.5987 21.0845 26.5514C21.104 26.504 21.1342 26.4618 21.1728 26.4282M21.0608 26.701H20.9108V26.7061M21.0608 26.701L20.9112 26.7123C20.9111 26.7102 20.9109 26.7082 20.9108 26.7061M21.1728 26.4282C21.2078 26.3905 21.2505 26.3607 21.298 26.341C21.3455 26.3212 21.3966 26.3119 21.4481 26.3138M21.1728 26.4282L21.0744 26.3151C21.0723 26.3168 21.0703 26.3186 21.0683 26.3204M21.1728 26.4282L21.0628 26.3263C21.0646 26.3243 21.0665 26.3224 21.0683 26.3204M21.4481 26.3138H76.2254M21.4481 26.3138L21.4533 26.1639C21.4524 26.1638 21.4514 26.1638 21.4505 26.1638M21.4481 26.3138V26.1638H21.4505M76.2254 26.3138C76.279 26.3119 76.3324 26.3211 76.3823 26.3408C76.4321 26.3605 76.4774 26.3902 76.5152 26.4282C76.5844 26.5026 76.6242 26.5995 76.6273 26.701V51.9355C76.6239 52.0413 76.5843 52.1427 76.5152 52.2228C76.435 52.2937 76.3324 52.3342 76.2254 52.3373H70.4717V52.4873M76.2254 26.3138V26.1638H76.223M76.2254 26.3138L76.2201 26.1639C76.2211 26.1638 76.222 26.1638 76.223 26.1638M70.4717 52.4873H70.3217V54.5035H70.4717M70.4717 52.4873V54.5035M70.4717 52.4873H76.2254V52.4874L76.2297 52.4873C76.3718 52.4831 76.508 52.4294 76.6145 52.3353L76.6222 52.3285L76.6288 52.3208C76.7203 52.2147 76.7727 52.0803 76.7772 51.9402L76.7773 51.9403V51.9355V26.701H76.7773L76.7772 26.6965C76.7731 26.5586 76.7189 26.427 76.625 26.3261L76.6251 26.326L76.6215 26.3224C76.5691 26.2698 76.5064 26.2285 76.4374 26.2012C76.3692 26.1743 76.2962 26.1616 76.223 26.1638M70.4717 54.5035V54.6535H76.2254C76.9429 54.6547 77.6315 54.3708 78.1397 53.8644M70.4717 54.5035H76.2254H76.2256C76.9014 54.5046 77.55 54.238 78.0297 53.7622M78.1397 53.8644L78.1543 53.8473C78.4052 53.5963 78.6041 53.2982 78.7395 52.9701C78.8749 52.642 78.9442 52.2904 78.9435 51.9355V26.701M78.1397 53.8644L78.0338 53.7581C78.0325 53.7595 78.0311 53.7609 78.0297 53.7622M78.1397 53.8644L78.0258 53.7668L78.0297 53.7622M78.9435 26.701C78.9391 25.9846 78.6561 25.298 78.1543 24.7867M78.9435 26.701H78.7934V26.7013C78.7893 26.0449 78.5377 25.415 78.0903 24.9367M78.9435 26.701L78.7935 26.7019L78.7934 51.9355V51.9358C78.7942 52.271 78.7287 52.603 78.6008 52.9129C78.473 53.2227 78.2852 53.5042 78.0482 53.7413L78.0479 53.741L78.0404 53.7498L78.0297 53.7622M78.1543 24.7867L78.1397 24.801L78.0472 24.8917C78.0618 24.9066 78.0762 24.9216 78.0903 24.9367M78.1543 24.7867V24.9367H78.1397H78.0903M78.0903 24.9367H78.0778L78.0339 24.893C77.7961 24.6565 77.514 24.4691 77.2038 24.3416C76.8936 24.2142 76.5612 24.149 76.2258 24.15L76.2254 24.15L21.4484 24.15M76.223 26.1638H21.4505M21.4505 26.1638C21.3785 26.1616 21.3069 26.1748 21.2404 26.2025C21.1755 26.2295 21.1169 26.2697 21.0683 26.3204M21.0683 26.3204C21.0149 26.3685 20.9731 26.4279 20.9458 26.4944C20.9182 26.5614 20.9063 26.6338 20.9108 26.7061M18.8946 26.7015C18.8988 26.0247 19.1661 25.3761 19.6398 24.8928M19.6398 24.8928C20.1232 24.4195 20.7719 24.1531 21.4484 24.15" fill="#0072BB" stroke="white" stroke-width="0.3"/>
<path d="M56.6323 30.1399L56.6322 30.14L56.6366 30.1449C56.7113 30.2285 56.7821 30.3171 56.852 30.4089H54.1397C52.711 29.0413 50.8164 28.2654 48.8374 28.2388L48.8374 28.2388L48.8336 28.2388C46.8589 28.2627 44.9686 29.0394 43.5479 30.4089H40.8359C40.9058 30.3171 40.9766 30.2285 41.0513 30.1449L41.0514 30.145L41.0556 30.1399C43.0409 27.7094 45.7988 26.2226 48.8354 26.2226C51.8892 26.2226 54.6471 27.7095 56.6323 30.1399Z" fill="#0072BB" stroke="white" stroke-width="0.3"/>
</svg>
