{
  "store.custom#faq": {
    "children": [
      "flex-layout.row#faq"
    ]
  },

  "flex-layout.row#faq": {
    "props": {
      "blockClass": [
        "faq",
        "pg-institucional"
      ]
    },
    
    "children": [
      "flex-layout.col#faq"
    ]
  },

  "flex-layout.col#faq": {
    "children": [
      "rich-text#faq",
      "disclosure-layout-group#group"
    ]
  },
  "rich-text#faq": {
    "props": {
      "text": "![Icon imgtitle](assets/svg/imgtitle.svg) Perguntas Frequentes",
      "textPosition":"CENTER",
      "blockClass": "titulosvitrine"
    }
  },

  "disclosure-layout-group#group": {
    "children": [
      "disclosure-layout#first",
      "disclosure-layout#second",
      "disclosure-layout#third",
      "disclosure-layout#fourth",
      "disclosure-layout#five",
      "disclosure-layout#six",
      "disclosure-layout#seven"
    ]
  },

  "disclosure-layout#first": {
    "props": {
      "animated": true
    },
    "children": ["disclosure-trigger#first", "disclosure-content#first"]
  },
  "disclosure-trigger#first": {
    "props": {
      "blockClass": "question",
      "as": "div"
    },
    "children": ["rich-text#question1","disclosure-state-indicator"]
  },
  "disclosure-content#first": {
    "props": {
      "blockClass": "answer"
    },
    "children": ["rich-text#answer1","flex-layout.row#footer-pagamento"]
  },
  "rich-text#question1": {
    "props": {
      "text": "Quais formas de pagamento posso aproveitar para realizar minha compra?"
    }
  },
  "rich-text#answer1": {
    "props": {
      "text": "Dispomos dos seguintes meios de pagamento: "
    }
  },

  "disclosure-layout#second": {
    "props": {
      "animated": true
    },
    "children": ["disclosure-trigger#second", "disclosure-content#second"]
  },
  "disclosure-trigger#second": {
    "props": {
      "blockClass": "question",
      "as": "div"
    },
    "children": ["rich-text#question2","disclosure-state-indicator"]
  },
  "disclosure-content#second": {
    "props": {
      "blockClass": "answer"
    },
    "children": ["rich-text#answer2"]
  },
  "rich-text#question2": {
    "props": {
      "text": "Qual é o custo de envio?"
    }
  },
  "rich-text#answer2": {
    "props": {
      "text": "O custo de envio será mostrado com base ao total da compra e sua localização, no checkout, no momento antes da compra."
    }
  },


  "disclosure-layout#third": {
    "props": {
      "animated": true
    },
    "children": ["disclosure-trigger#third", "disclosure-content#third"]
  },
  "disclosure-trigger#third": {
    "props": {
      "blockClass": "question",
      "as": "div"
    },
    "children": ["rich-text#question3","disclosure-state-indicator"]
  },
  "disclosure-content#third": {
    "props": {
      "blockClass": "answer"
    },
    "children": ["rich-text#answer3"]
  },
  "rich-text#question3": {
    "props": {
      "text": "Como se realizam os envios?"
    }
  },
  "rich-text#answer3": {
    "props": {
      "text": "Trabalhamos com: correios e outras transportadoras"
    }
  },

  "disclosure-layout#fourth": {
    "props": {
      "animated": true
    },
    "children": ["disclosure-trigger#fourth", "disclosure-content#fourth"]
  },
  "disclosure-trigger#fourth": {
    "props": {
      "blockClass": "question",
      "as": "div"
    },
    "children": ["rich-text#question4","disclosure-state-indicator"]
  },
  "disclosure-content#fourth": {
    "props": {
      "blockClass": "answer"
    },
    "children": ["rich-text#answer4"]
  },
  "rich-text#question4": {
    "props": {
      "text": "Onde posso receber meu pedido?"
    }
  },
  "rich-text#answer4": {
    "props": {
      "text": "Realizamos envios para todo o país."
    }
  },
  

  "disclosure-layout#five": {
    "props": {
      "animated": true
    },
    "children": ["disclosure-trigger#five", "disclosure-content#five"]
  },
  "disclosure-trigger#five": {
    "props": {
      "blockClass": "question",
      "as": "div"
    },
    "children": ["rich-text#question5","disclosure-state-indicator"]
  },
  "disclosure-content#five": {
    "props": {
      "blockClass": "answer"
    },
    "children": ["rich-text#answer5"]
  },
  "rich-text#question5": {
    "props": {
      "text": "Quanto tarda em chegar o pedido?"
    }
  },
  "rich-text#answer5": {
    "props": {
      "text": "O tempo de entrega dependerá do tipo de envio selecionado. Em geral, leva entre 3 e 7 dias úteis após a acreditação do pagamento."
    }
  },

  "disclosure-layout#six": {
    "props": {
      "animated": true
    },
    "children": ["disclosure-trigger#six", "disclosure-content#six"]
  },
  "disclosure-trigger#six": {
    "props": {
      "blockClass": "question",
      "as": "div"
    },
    "children": ["rich-text#question6","disclosure-state-indicator"]
  },
  "disclosure-content#six": {
    "props": {
      "blockClass": "answer"
    },
    "children": ["rich-text#answer6"]
  },
  "rich-text#question6": {
    "props": {
      "text": "Qual o prazo para realizar uma troca?"
    }
  },
  "rich-text#answer6": {
    "props": {
      "text": "No caso de arrependimento da compra você tem até 7 dias, após a compra, para solicitar o estorno do pagamento."
    }
  },

  "disclosure-layout#seven": {
    "props": {
      "animated": true
    },
    "children": ["disclosure-trigger#seven", "disclosure-content#seven"]
  },
  "disclosure-trigger#seven": {
    "props": {
      "blockClass": "question",
      "as": "div"
    },
    "children": ["rich-text#question7","disclosure-state-indicator"]
  },
  "disclosure-content#seven": {
    "props": {
      "blockClass": "answer"
    },
    "children": ["rich-text#answer7"]
  },
  "rich-text#question7": {
    "props": {
      "text": "Que devo fazer se o produto não chega em bom estado?"
    }
  },
  "rich-text#answer7": {
    "props": {
      "text": "Entre em contato com nós no construai@construai.com.br e te enviaremos um novo."
    }
  }
}
